\relax 
\@writefile{toc}{\contentsline {section}{\numberline {1}Statement}{1}\protected@file@percent }
\@writefile{toc}{\contentsline {paragraph}{}{1}\protected@file@percent }
\@writefile{toc}{\contentsline {paragraph}{}{1}\protected@file@percent }
\@writefile{toc}{\contentsline {paragraph}{}{1}\protected@file@percent }
\@writefile{toc}{\contentsline {paragraph}{}{1}\protected@file@percent }
\@writefile{toc}{\contentsline {section}{\numberline {2}Logical operations and their properties}{1}\protected@file@percent }
\@writefile{toc}{\contentsline {paragraph}{}{1}\protected@file@percent }
\@writefile{toc}{\contentsline {paragraph}{}{1}\protected@file@percent }
\@writefile{toc}{\contentsline {paragraph}{}{2}\protected@file@percent }
\@writefile{toc}{\contentsline {paragraph}{}{2}\protected@file@percent }
\@writefile{toc}{\contentsline {paragraph}{}{2}\protected@file@percent }
\@writefile{toc}{\contentsline {section}{\numberline {3}The\IeC {\nobreakspace  }notions\IeC {\nobreakspace  }of\IeC {\nobreakspace  }Implies\IeC {\nobreakspace  }and\IeC {\nobreakspace  }Logically\IeC {\nobreakspace  }Equivalent}{2}\protected@file@percent }
\@writefile{toc}{\contentsline {paragraph}{}{2}\protected@file@percent }
\@writefile{toc}{\contentsline {paragraph}{}{2}\protected@file@percent }
\@writefile{toc}{\contentsline {section}{\numberline {4}The\IeC {\nobreakspace  }conditional-hypothetical\IeC {\nobreakspace  }syllogism\IeC {\nobreakspace  }rules\IeC {\nobreakspace  }of\IeC {\nobreakspace  }inference}{3}\protected@file@percent }
\@writefile{toc}{\contentsline {paragraph}{}{3}\protected@file@percent }
\@writefile{toc}{\contentsline {paragraph}{}{3}\protected@file@percent }
